{
	"name": "rack{n}",
	"label": "Tethered Rack {n}",
	"tabs": [
		{
			"label": "",
			"sections": [
				{
					"label": "Installed Modules",
					"enable": "exp.tcount,{n},>=",
					"message": "This rack is not installed.",
					"table": {
						"name": "modules",
						"label": "Module Selection",
						"rows": 3,
						"rname": "Slot",
						"fields": [
							{
								"name": "type",
								"label": "Module Type",
								"type": "enum",
								"format": "=mtype",
								"default": "0",
								"width": 300
							}
						]
					}
				}
			]
		}
	]
}
