{
	"name": "inbound",
	"label": "Untrusted Traffic",
	"tabs": [
		{
			"label": "Predefined",
			"sections": [
				{
					"label": "Services",
					"table": {
						"name": "predef",
						"label": "Service",
						"template": [
							{
								"key": "ping",
								"name": "Ping",
								"enable": "0",
								"wlist": "0"
							},
							{
								"key": "ssh",
								"name": "SSH",
								"enable": "0",
								"wlist": "0"
							},
							{
								"key": "telnet",
								"name": "Telnet",
								"enable": "0",
								"wlist": "0"
							},
							{
								"key": "web",
								"name": "Web UI",
								"enable": "0",
								"wlist": "0"
							},
							{
								"key": "mdns",
								"name": "mDNS",
								"enable": "0",
								"wlist": "0"
							},
							{
								"key": "llmnr",
								"name": "LLMNR",
								"enable": "0",
								"wlist": "0"
							},
							{
								"key": "c3",
								"name": "Crimson Download",
								"enable": "0",
								"wlist": "0"
							},
							{
								"key": "snmp",
								"name": "SNMP",
								"enable": "0",
								"wlist": "0"
							},
							{
								"key": "ipsec",
								"name": "IPsec",
								"enable": "1",
								"wlist": "0"
							},
							{
								"key": "nat",
								"name": "NAT Traversal",
								"enable": "1",
								"wlist": "0"
							},
							{
								"key": "open",
								"name": "OpenVPN",
								"enable": "1",
								"wlist": "0"
							},
							{
								"key": "svm",
								"name": "SVM Force",
								"enable": "0",
								"wlist": "0"
							}
						],
						"fields": [
							{
								"name": "key",
								"label": "Key",
								"type": "hidden",
								"hide": true
							},
							{
								"name": "name",
								"label": "Service",
								"type": "string",
								"format": "general",
								"enable": "0"
							},
							{
								"name": "enable",
								"label": "Status",
								"type": "enum",
								"format": "=den"
							},
							{
								"name": "wlist",
								"label": "White List",
								"type": "enum",
								"format": "Allow All|<net.firewall.lists.wlist>",
								"enable": "enable,1,=="
							}
						]
					}
				}
			]
		},
		{
			"label": "Custom",
			"sections": [
				{
					"label": "Services",
					"table": {
						"name": "custom",
						"label": "Service",
						"fields": [
							{
								"name": "name",
								"label": "Label",
								"type": "string",
								"format": "general,Untitled",
								"width": 100
							},
							{
								"name": "face",
								"label": "Interface",
								"type": "enum",
								"format": "=xfaces",
								"width": 100
							},
							{
								"name": "prot",
								"label": "Protocol",
								"type": "enum",
								"format": "TCP|UDP|TCP+UDP|ICMP",
								"width": 100
							},
							{
								"name": "sport",
								"label": "Start Port",
								"type": "number",
								"format": "0,1,65535",
								"enable": "prot,3,!=",
								"width": 100
							},
							{
								"name": "eport",
								"label": "End Port",
								"type": "number",
								"format": "0,0,65535,,Single Port",
								"enable": "prot,3,!=",
								"width": 100
							},
							{
								"name": "wlist",
								"label": "White List",
								"type": "enum",
								"format": "Allow All|<net.firewall.lists.wlist>",
								"width": 100
							}
						]
					}
				}
			]
		}
	]
}
