{
	"name": "dhcpServer",
	"label": "DHCP Server",
	"tabs": [
		{
			"label": "Global",
			"sections": [
				{
					"label": "Settings",
					"fields": [
						{
							"name": "domain",
							"label": "Domain Name",
							"type": "string",
							"format": "general,None"
						},
						{
							"name": "dnsMode",
							"label": "DNS Servers",
							"type": "enum",
							"format": "Proxy|Custom"
						},
						{
							"name": "dns1",
							"label": "Primary DNS",
							"type": "ip",
							"format": "addresss,8.8.8.8",
							"enable": "dnsMode,1,=="
						},
						{
							"name": "dns2",
							"label": "Secondary DNS",
							"type": "ip",
							"format": "addresss,8.8.4.4",
							"enable": "dnsMode,1,=="
						},
						{
							"name": "ntpMode",
							"label": "NTP Server",
							"type": "enum",
							"format": "Proxy|Custom"
						},
						{
							"name": "ntp1",
							"label": "Primary NTP",
							"type": "ip",
							"format": "addresss,129.6.15.28",
							"enable": "ntpMode,1,=="
						},
						{
							"name": "defLeaseMins",
							"label": "Default Lease",
							"type": "number",
							"format": "240,1,14400,mins"
						},
						{
							"name": "minLeaseMins",
							"label": "Minimum Lease",
							"type": "number",
							"format": "60,1,14400,mins"
						},
						{
							"name": "defLeaseMins",
							"label": "Maximum Lease",
							"type": "number",
							"format": "14400,1,14400,mins"
						}
					]
				}
			]
		},
		{
			"label": "Reservations",
			"sections": [
				{
					"label": "Reservations",
					"table": {
						"name": "res",
						"label": "Address Reservation",
						"fields": [
							{
								"name": "mac",
								"label": "MAC Address",
								"type": "string",
								"format": "mac,None"
							},
							{
								"name": "ip",
								"label": "IP Address",
								"type": "ip",
								"format": "addresss,0.0.0.0"
							}
						]
					}
				}
			]
		}
	]
}
