{
	"name": "{d}",
	"label": "{n}",
	"tabs": [
		{
			"label": "Settings",
			"sections": [
				{
					"label": "Port Settings",
					"fields": [
						{
							"name": "mode",
							"label": "Port Mode",
							"type": "enum",
							"format": "=ethModeWiFi"
						},
						{
							"name": "dhcpGate",
							"label": "Gateway from DHCP",
							"type": "enum",
							"format": "=den",
							"default": "0",
							"enable": "mode,1,=="
						},
						{
							"name": "address",
							"label": "IP Address",
							"type": "ip",
							"format": "address,192.168.{x}.10",
							"enable": "mode,2,=="
						},
						{
							"name": "netmask",
							"label": "Network Mask",
							"type": "ip",
							"format": "mask,255.255.255.0",
							"enable": "mode,2,=="
						},
						{
							"name": "gateway",
							"label": "Gateway",
							"type": "ip",
							"format": "optional,0.0.0.0,Not Defined",
							"enable": "mode,2,=="
						},
						{
							"name": "metric",
							"label": "Interface Metric",
							"type": "number",
							"format": "0,0,2000,,Automatic",
							"enable": "mode,1,==,mode,2,==,||"
						},
						{
							"name": "trust",
							"label": "Trust Status",
							"type": "enum",
							"format": "Untrusted|Trusted",
							"default": "1",
							"enable": "mode,1,==,mode,2,==,||"
						},
						{
							"name": "internet",
							"label": "Internet Sharing",
							"type": "enum",
							"format": "Disabled|Enabled|Connected to Internet",
							"enable": "mode,1,==,mode,2,==,||"
						}
					]
				},
				{
					"label": "Wireless Settings",
					"fields": [
						{
							"name": "wmode",
							"label": "Wireless Mode",
							"type": "enum",
							"format": "Station|Access Point",
							"enable": "mode,0,!="
						},
						{
							"name": "ssid",
							"label": "SSID",
							"type": "ssid",
							"format": "Default,{d}",
							"enable": "mode,0,!=",
							"scan": "wmode,0,=="
						},
						{
							"name": "psk",
							"label": "Password",
							"type": "password",
							"format": "wifi,None",
							"enable": "mode,0,!=,wmode,0,==,encrypt,0,!=,||,&&"
						}
					]
				}
			]
		},
		{
			"label": "Access Point",
			"sections": [
				{
					"label": "AP Settings",
					"enable": "mode,0,!=,wmode,1,==,&&",
					"message": "These settings are only available when configured in Access Point mode.",
					"fields": [
						{
							"name": "band",
							"label": "Band",
							"type": "enum",
							"format": "802.11b|802.11g|802.11b/g|802.11g/n",
							"default": "3",
							"enable": "mode,0,!=,wmode,1,==,&&"
						},
						{
							"name": "channel",
							"label": "Channel",
							"type": "number",
							"format": "7,1,11",
							"enable": "mode,0,!=,wmode,1,==,&&"
						},
						{
							"name": "broadcast",
							"label": "Broadcast SSID",
							"type": "enum",
							"format": "=den",
							"default": "1",
							"enable": "mode,0,!=,wmode,1,==,&&"
						},
						{
							"name": "encrypt",
							"label": "Encryption Mode",
							"type": "enum",
							"format": "None|WPA PSK|WPA2 PSK|WPA or WPA2 PSK|WPA2 Enterprise",
							"default": "2",
							"enable": "mode,0,!=,wmode,1,==,&&"
						}
					]
				}
			]
		}
	]
}
