{
	"name": "io",
	"label": "On-Board I/O",
	"tabs": [
		{
			"label": "Digital I/O",
			"sections": [
				{
					"label": "Digital Output",
					"fields": [
						{
							"name": "domode",
							"label": "Operating Mode",
							"type": "enum",
							"format": "Programmable|On When Running|On When Modem Connected"
						}
					]
				},
				{
					"label": "Digital Input",
					"fields": [
						{
							"name": "dimode1",
							"label": "Rising Edge Action",
							"type": "enum",
							"format": "None|Turn Output On|Turn Output Off|Send Message|Reboot System"
						},
						{
							"name": "dimode0",
							"label": "Falling Edge Action",
							"type": "enum",
							"format": "None|Turn Output On|Turn Output Off|Send Message"
						}
					]
				}
			]
		},
		{
			"label": "Analog Input",
			"sections": [
				{
					"label": "Analog Input",
					"fields": [
						{
							"name": "aimodelo",
							"label": "Low Action",
							"type": "enum",
							"format": "None|Turn Output On|Turn Output Off|Send Message"
						},
						{
							"name": "aimodehi",
							"label": "High Action",
							"type": "enum",
							"format": "None|Turn Output On|Turn Output Off|Send Message"
						},
						{
							"name": "ailo",
							"label": "Low Trigger",
							"type": "number",
							"format": "9000,0,38000,mV",
							"enable": "aimodelo,0,!=,aimodehi,0,!=,||"
						},
						{
							"name": "aihi",
							"label": "High Trigger",
							"type": "number",
							"format": "30000,0,38000,mV",
							"enable": "aimodelo,0,!=,aimodehi,0,!=,||"
						}
					]
				}
			]
		},
		{
			"label": "Supply Voltage",
			"sections": [
				{
					"label": "Supply Voltage",
					"fields": [
						{
							"name": "vimodelo",
							"label": "Low Action",
							"type": "enum",
							"format": "None|Turn Output On|Turn Output Off|Send Message"
						},
						{
							"name": "vimodehi",
							"label": "High Action",
							"type": "enum",
							"format": "None|Turn Output On|Turn Output Off|Send Message"
						},
						{
							"name": "vilo",
							"label": "Low Trigger",
							"type": "number",
							"format": "9000,0,38000,mV",
							"enable": "vimodelo,0,!=,vimodehi,0,!=,||"
						},
						{
							"name": "vihi",
							"label": "High Trigger",
							"type": "number",
							"format": "30000,0,38000,mV",
							"enable": "vimodelo,0,!=,vimodehi,0,!=,||"
						}
					]
				}
			]
		},
		{
			"label": "Alert Messages",
			"sections": [
				{
					"label": "Subject",
					"fields": [
						{
							"name": "devname",
							"label": "Device Name",
							"type": "string",
							"format": "general,Default"
						}
					]
				},
				{
					"label": "Recipients",
					"fields": [
						{
							"name": "msg1",
							"label": "Recipient 1",
							"type": "string",
							"format": "general,None"
						},
						{
							"name": "msg2",
							"label": "Recipient 2",
							"type": "string",
							"format": "general,None"
						}
					]
				}
			]
		}
	]
}
