Model,Description,Read-Only,Name,Table
E3-MIX20884,,,,
1:00001-20,On_Board_Discrete_Inputs,,DI,4
1:00021-32,Available_Internal_Registers1,,DI,4
1:00033,Self_Test_OK,Y,DI,4
1:00034,Power1_OK,Y,DI,4
1:00035,Power2_OK,Y,DI,4
1:00036,IO_Status_Valid,Y,DI,4
1:00037,Ethernet1_Link_Status,Y,DI,4
1:00038,Ethernet2_Link_Status,Y,DI,4
1:00039,Ring_Complete,Y,DI,4
1:00041,Heartbeat_Bypass,Y,DI,4
1:00043,Network_Overload,Y,DI,4
1:00049-64,IO_Transfer_Status_Bits,Y,DI,4
1:00065-512,Available_Internal_Registers2,,DI,4
0:0001-8,On_Board_Discrete_Outputs,,DO,3
0:0009-20,Counter_Resets,,DO,3
0:00021-512,Available_Internal_Registers,,DO,3
3:00001-8,On_Board_Analog_Inputs,,AI,2
3:00009-20,Counter_Inputs,,AI,2
3:00021-256,Available_Internal_Registers,,AI,2
4:00001-4,On_Board_Analog_Outputs,,AO,1
4:00005-12,TPO_Outputs,,AO,1
4:000013-256,Available_Internal_Registers,,AO,1

,,,,
E3-MIX24882,,,,
1:00001-24,On_Board_Discrete_Inputs,,DI,4
1:00025-32,Available_Internal_Registers1,,DI,4
1:00033,Self_Test_OK,Y,DI,4
1:00034,Power1_OK,Y,DI,4
1:00035,Power2_OK,Y,DI,4
1:00036,IO_Status_Valid,Y,DI,4
1:00037,Ethernet1_Link_Status,Y,DI,4
1:00038,Ethernet2_Link_Status,Y,DI,4
1:00039,Ring_Complete,Y,DI,4
1:00041,Heartbeat_Bypass,Y,DI,4
1:00043,Network_Overload,,DI,4
1:00049-64,IO_Transfer_Status_Bits,Y,DI,4
1:00065-512,Available_Internal_Registers2,,DI,4
0:0001-8,On_Board_Discrete_Outputs,,DO,3
0:0009-24,Counter_Resets,,DO,3
0:0025-512,Available_Internal_Registers,,DO,3
3:00001-8,On_Board_Analog_Inputs,,AI,2
3:00009-24,Counter_Inputs,,AI,2
3:00025-256,Available_Internal_Registers,,AI,2
4:00001-2,On_Board_Analog_Outputs,,AO,1
4:00003-10,TPO_Outputs,,AO,1
4:000011-256,Available_Internal_Registers,,AO,1

,,,,
E3-MIX24880,,,,
1:00001-24,On_Board_Discrete_Inputs,,DI,4
1:00025-32,Available_Internal_Registers1,,DI,4
1:00033,Self_Test_OK,Y,DI,4
1:00034,Power1_OK,Y,DI,4
1:00035,Power2_OK,Y,DI,4
1:00036,IO_Status_Valid,Y,DI,4
1:00037,Ethernet1_Link_Status,Y,DI,4
1:00038,Ethernet2_Link_Status,Y,DI,4
1:00039,Ring_Complete,Y,DI,4
1:00041,Heartbeat_Bypass,Y,DI,4
1:00043,Network_Overload,,DI,4
1:00049-64,IO_Transfer_Status_Bits,Y,DI,4
1:00065-512,Available_Internal_Registers2,,DI,4
0:00001-8,On_Board_Discrete_Outputs,,DO,3
0:00009-24,Counter_Resets,,DO,3
0:00025-512,Available_Internal_Registers,,DO,3
3:00001-8,On_Board_Analog_Inputs,,AI,2
3:00009-24,Counter_Inputs,,AI,2
3:00025-256,Available_Internal_Registers,,AI,2
4:00001-8,TPO_Outputs,,AO,1
4:00009-256,Available_Internal_Registers,,AO,1

,,,,
E3-32DI24,,,,
1:00001-32,On_Board_Discrete_Inputs,,DI,4
1:00033,Self_Test_OK,Y,DI,4
1:00034,Power1_OK,Y,DI,4
1:00035,Power2_OK,Y,DI,4
1:00036,IO_Status_Valid,Y,DI,4
1:00037,Ethernet1_Link_Status,Y,DI,4
1:00038,Ethernet2_Link_Status,Y,DI,4
1:00039,Ring_Complete,Y,DI,4
1:00041,Heartbeat_Bypass,Y,DI,4
1:00043,Network_Overload,,DI,4
1:00049-64,IO_Transfer_Status_Bits,Y,DI,4
1:00065-512,Available_Internal_Registers,,DI,4
0:00001-32,Counter_Resets,,DO,3
0:00033-512,Available_Internal_Registers,,DO,3
3:00001-32,Counter_Inputs,,AI,2
3:00033-256,Available_Internal_Registers,,AI,2
4:00001-256,Available_Internal_Registers,,AO,1
,,,,
E3-16DI24,,,,
1:00001-16,On_Board_Discrete_Inputs,,DI,4
1:00017-32,Available_Internal_Registers1,,DI,4
1:00033,Self_Test_OK,Y,DI,4
1:00034,Power1_OK,Y,DI,4
1:00035,Power2_OK,Y,DI,4
1:00036,IO_Status_Valid,Y,DI,4
1:00037,Ethernet1_Link_Status,Y,DI,4
1:00038,Ethernet2_Link_Status,Y,DI,4
1:00039,Ring_Complete,Y,DI,4
1:00041,Heartbeat_Bypass,Y,DI,4
1:00043,Network_Overload,,DI,4
1:00049-64,IO_Transfer_Status_Bits,Y,DI,4
1:00065-512,Available_Internal_Registers2,,DI,4
0:00001-16,Counter_Resets,,DO,3
0:00017-512,Available_Internal_Registers,,DO,3
3:00001-16,Counter_Inputs,,AI,2
3:00017-256,Available_Internal_Registers,,AI,2
4:00001-256,Available_Internal_Registers,,AO,1
,,,,
E3-16DIAC,,,,
1:00001-16,On_Board_Discrete_Inputs,,DI,4
1:00017-32,Available_Internal_Registers1,,DI,4
1:00033,Self_Test_OK,Y,DI,4
1:00034,Power1_OK,Y,DI,4
1:00035,Power2_OK,Y,DI,4
1:00036,IO_Status_Valid,Y,DI,4
1:00037,Ethernet1_Link_Status,Y,DI,4
1:00038,Ethernet2_Link_Status,Y,DI,4
1:00039,Ring_Complete,Y,DI,4
1:00041,Heartbeat_Bypass,Y,DI,4
1:00043,Network_Overload,,DI,4
1:00049-64,IO_Transfer_Status_Bits,Y,DI,4
1:00065-512,Available_Internal_Registers2,,DI,4
0:00001-16,Counter_Resets,,DO,3
0:00017-512,Available_Internal_Registers,,DO,3
3:00001-16,Counter_Inputs,,AI,2
3:00017-256,Available_Internal_Registers,,AI,2
4:00001-256,Available_Internal_Registers,,AO,1
,,,,
E3-32DO24,,,,
1:00001-32,Available_Internal_Registers1,,DI,4
1:00033,Self_Test_OK,Y,DI,4
1:00034,Power1_OK,Y,DI,4
1:00035,Power2_OK,Y,DI,4
1:00036,IO_Status_Valid,Y,DI,4
1:00037,Ethernet1_Link_Status,Y,DI,4
1:00038,Ethernet2_Link_Status,Y,DI,4
1:00039,Ring_Complete,Y,DI,4
1:00041,Heartbeat_Bypass,Y,DI,4
1:00043,Network_Overload,,DI,4
1:00049-64,IO_Transfer_Status_Bits,Y,DI,4
1:00065-512,Available_Internal_Registers2,,DI,4
0:0001-32,On_Board_Discrete_Outputs,,DO,3
0:0033-512,Available_Internal_Registers,,DO,3
3:00001-256,Available_Internal_Registers,,AI,2
4:00001-32,TPO_Outputs,,AO,1
4:00033-256,Available_Internal_Registers,,AO,1
,,,,
E3-16DO24,,,,
1:00001-32,Available_Internal_Registers1,,DI,4
1:00033,Self_Test_OK,Y,DI,4
1:00034,Power1_OK,Y,DI,4
1:00035,Power2_OK,Y,DI,4
1:00036,IO_Status_Valid,Y,DI,4
1:00037,Ethernet1_Link_Status,Y,DI,4
1:00038,Ethernet2_Link_Status,Y,DI,4
1:00039,Ring_Complete,Y,DI,4
1:00041,Heartbeat_Bypass,Y,DI,4
1:00043,Network_Overload,,DI,4
1:00049-64,IO_Transfer_Status_Bits,Y,DI,4
1:00065-512,Available_Internal_Registers2,,DI,4
0:0001-16,On_Board_Discrete_Outputs,,DO,3
0:0017-512,Available_Internal_Registers,,DO,3
3:00001-256,Available_Internal_Registers,,AI,2
4:00001-16,TPO_Outputs,,AO,1
4:00017-256,Available_Internal_Registers,,AO,1
,,,,
E3-32AI20M,,,,
1:00001-32,Available_Internal_Registers1,,DI,4
1:00033,Self_Test_OK,Y,DI,4
1:00034,Power1_OK,Y,DI,4
1:00035,Power2_OK,Y,DI,4
1:00036,IO_Status_Valid,Y,DI,4
1:00037,Ethernet1_Link_Status,Y,DI,4
1:00038,Ethernet2_Link_Status,Y,DI,4
1:00039,Ring_Complete,Y,DI,4
1:00041,Heartbeat_Bypass,Y,DI,4
1:00043,Network_Overload,,DI,4
1:00049-64,IO_Transfer_Status_Bits,Y,DI,4
1:00065-512,Available_Internal_Registers2,,DI,4
0:0001-512,Available_Internal_Registers,,DO,3
3:00001-32,On_Board_Analog_Inputs,,AI,2
3:00033-256,Available_Internal_Registers,,AI,2
4:00001-256,Available_Internal_Registers,,AO,1
,,,,
E3-16AI20M,,,,
1:00001-32,Available_Internal_Registers1,,DI,4
1:00033,Self_Test_OK,Y,DI,4
1:00034,Power1_OK,Y,DI,4
1:00035,Power2_OK,Y,DI,4
1:00036,IO_Status_Valid,Y,DI,4
1:00037,Ethernet1_Link_Status,Y,DI,4
1:00038,Ethernet2_Link_Status,Y,DI,4
1:00039,Ring_Complete,Y,DI,4
1:00041,Heartbeat_Bypass,Y,DI,4
1:00043,Network_Overload,,DI,4
1:00049-64,IO_Transfer_Status_Bits,Y,DI,4
1:00065-512,Available_Internal_Registers2,,DI,4
0:0001-512,Available_Internal_Registers,,DO,3
3:00001-16,On_Board_Analog_Inputs,,AI,2
3:000017-256,Available_Internal_Registers,,AI,2
4:00001-256,Available_Internal_Registers,,AO,1
,,,,
E3-8AO20M,,,,
1:00001-32,Available_Internal_Registers1,,DI,4
1:00033,Self_Test_OK,Y,DI,4
1:00034,Power1_OK,Y,DI,4
1:00035,Power2_OK,Y,DI,4
1:00036,IO_Status_Valid,Y,DI,4
1:00037,Ethernet1_Link_Status,Y,DI,4
1:00038,Ethernet2_Link_Status,Y,DI,4
1:00039,Ring_Complete,Y,DI,4
1:00041,Heartbeat_Bypass,Y,DI,4
1:00043,Network_Overload,,DI,4
1:00049-64,IO_Transfer_Status_Bits,Y,DI,4
1:00065-512,Available_Internal_Registers2,,DI,4
0:0001-512,Available_Internal_Registers,,DO,3
3:000001-256,Available_Internal_Registers,,AI,2
4:00001-8,On_Board_Analog_Outputs,,AO,1
4:00009-256,Available_Internal_Registers,,AO,1
,,,,
E3-16AI8AO,,,,
1:00001-32,Available_Internal_Registers1,,DI,4
1:00033,Self_Test_OK,Y,DI,4
1:00034,Power1_OK,Y,DI,4
1:00035,Power2_OK,Y,DI,4
1:00036,IO_Status_Valid,Y,DI,4
1:00037,Ethernet1_Link_Status,Y,DI,4
1:00038,Ethernet2_Link_Status,Y,DI,4
1:00039,Ring_Complete,Y,DI,4
1:00041,Heartbeat_Bypass,Y,DI,4
1:00043,Network_Overload,,DI,4
1:00049-64,IO_Transfer_Status_Bits,Y,DI,4
1:00065-512,Available_Internal_Registers2,,DI,4
0:0001-512,Available_Internal_Registers,,DO,3
3:00001-16,On_Board_Analog_Inputs,,AI,2
3:000017-256,Available_Internal_Registers,,AI,2
4:00001-8,On_Board_Analog_Outputs,,AO,1
4:00009-256,Available_Internal_Registers,,AO,1
,,,,
E3-32AI10V,,,,
1:00001-32,Available_Internal_Registers1,,DI,4
1:00033,Self_Test_OK,Y,DI,4
1:00034,Power1_OK,Y,DI,4
1:00035,Power2_OK,Y,DI,4
1:00036,IO_Status_Valid,Y,DI,4
1:00037,Ethernet1_Link_Status,Y,DI,4
1:00038,Ethernet2_Link_Status,Y,DI,4
1:00039,Ring_Complete,Y,DI,4
1:00041,Heartbeat_Bypass,Y,DI,4
1:00043,Network_Overload,,DI,4
1:00049-64,IO_Transfer_Status_Bits,Y,DI,4
1:00065-512,Available_Internal_Registers2,,DI,4
0:0001-512,Available_Internal_Registers,,DO,3
3:00001-32,On_Board_Analog_Inputs,,AI,2
3:00033-256,Available_Internal_Registers,,AI,2
4:00001-256,Available_Internal_Registers,,AO,1
,,,,
E3-10RTD,,,,
1:00001-32,Available_Internal_Registers1,,DI,4
1:00033,Self_Test_OK,Y,DI,4
1:00034,Power1_OK,Y,DI,4
1:00035,Power2_OK,Y,DI,4
1:00036,IO_Status_Valid,Y,DI,4
1:00037,Ethernet1_Link_Status,Y,DI,4
1:00038,Ethernet2_Link_Status,Y,DI,4
1:00039,Ring_Complete,Y,DI,4
1:00041,Heartbeat_Bypass,Y,DI,4
1:00043,Network_Overload,,DI,4
1:00049-64,IO_Transfer_Status_Bits,Y,DI,4
1:00065-512,Available_Internal_Registers2,,DI,4
0:0001-512,Available_Internal_Registers,,DO,3
3:00001-10,On_Board_Analog_Inputs,,AI,2
3:00011-256,Available_Internal_Registers,,AI,2
4:00001-256,Available_Internal_Registers,,AO,1
,,,,
E3-16ISOTC,,,,
1:00001-32,Available_Internal_Registers1,,DI,4
1:00033,Self_Test_OK,Y,DI,4
1:00034,Power1_OK,Y,DI,4
1:00035,Power2_OK,Y,DI,4
1:00036,IO_Status_Valid,Y,DI,4
1:00037,Ethernet1_Link_Status,Y,DI,4
1:00038,Ethernet2_Link_Status,Y,DI,4
1:00039,Ring_Complete,Y,DI,4
1:00041,Heartbeat_Bypass,Y,DI,4
1:00043,Network_Overload,,DI,4
1:00049-64,IO_Transfer_Status_Bits,Y,DI,4
1:00065-512,Available_Internal_Registers2,,DI,4
0:0001-512,Available_Internal_Registers,,DO,3
3:00001-16,On_Board_Analog_Inputs,,AI,2
3:00017-20,CJC_Sensor,,AI,2
3:00021-256,Available_Internal_Registers,,AI,2
4:00001-256,Available_Internal_Registers,,AO,1
,,,,
E3-16ISO20M,,,,
1:00001-32,Available_Internal_Registers1,,DI,4
1:00033,Self_Test_OK,Y,DI,4
1:00034,Power1_OK,Y,DI,4
1:00035,Power2_OK,Y,DI,4
1:00036,IO_Status_Valid,Y,DI,4
1:00037,Ethernet1_Link_Status,Y,DI,4
1:00038,Ethernet2_Link_Status,Y,DI,4
1:00039,Ring_Complete,Y,DI,4
1:00041,Heartbeat_Bypass,Y,DI,4
1:00043,Network_Overload,,DI,4
1:00049-64,IO_Transfer_Status_Bits,Y,DI,4
1:00065-512,Available_Internal_Registers2,,DI,4
0:0001-512,Available_Internal_Registers,,DO,3
3:00001-16,On_Board_Analog_Inputs,,AI,2
3:00017-256,Available_Internal_Registers,,AI,2
4:00001-256,Available_Internal_Registers,,AO,1
,,,,
E3-16DORLY,,,,
1:00001-32,Available_Internal_Registers1,,DI,4
1:00033,Self_Test_OK,Y,DI,4
1:00034,Power1_OK,Y,DI,4
1:00035,Power2_OK,Y,DI,4
1:00036,IO_Status_Valid,Y,DI,4
1:00037,Ethernet1_Link_Status,Y,DI,4
1:00038,Ethernet2_Link_Status,Y,DI,4
1:00039,Ring_Complete,Y,DI,4
1:00041,Heartbeat_Bypass,Y,DI,4
1:00043,Network_Overload,,DI,4
1:00049-64,IO_Transfer_Status_Bits,Y,DI,4
1:00065-512,Available_Internal_Registers2,,DI,4
0:0001-16,On_Board_Discrete_Outputs,,DO,3
0:0017-512,Available_Internal_Registers,,DO,3
3:00001-256,Available_Internal_Registers,,AI,2
4:00001-256,Available_Internal_Registers,,AO,1
