6
Chapter 2 Function Blocks and Operators 5
ABS ABSL 6
ACOS ACOSL 7
+ ADD 8
ALARM_A 9
ALARM_M 10
AND ANDN & 11
ANY_TO_BOOL 12
ANY_TO_DINT ANY_TO_UDINT 13
ANY_TO_INT ANY_TO_UINT 14
ANY_TO_LINT ANY_TO_ULINT 15
ANY_TO_LREAL 16
ANY_T0_REAL 17
ANY_TO_SINT ANY_TO_USINT 18
ANY_TO_STRING 19
ANY_TO_TIME 20
ASIN ASINL 21
ATAN ATANL 22
ATAN2 ATAN2L 23
BLINK 24
BLINKA 25
CMP 26
CONCAT 27
COS COSL 28
CTD CTDr 29
CTU CTUr 30
CTUD CTUDr 31
DELETE  32
/ DIV 33
DTAt 34
DTCurDate 36
DTCurDateTime 37
DTCurTime 38
DTDay 39
DTFormat 40
DTHour 41
DTMin 42
DTMonth 43
DTMs 44
DTSec 45
DTYear 46
= EQ 47
EXP EXPL 48
EXPT 49
F_TRIG 50
FIND 51
>= GE 52
> GT 53
GETSYSINFO 54
INSERT 56
<= LE 57
LEFT 58
LEN 59
LIMIT 60
LN LNL 61
LOG LOGL 62
< LT 63
MAX 64
MID 65
MIN 66
MOD MODR MODLR 67
* MUL 68
<> NE 69
NEG - 70
NOT 71
OR 72
PLS 73
POW POWL 74
QOR 75
R_TRIG 76
REPLACE 77
RIGHT 78
ROL 79
ROOT 80
ROR 81
RS 82
ScaleLin 83
SEL 84
SHL 85
SHR 86
SIN SINL 87
SQRT SQRTL 88
SR 89
- SUB 90
TAN TANL 91
TMD 92
TMU 93
TOF TOFR 94
TON 95
TP TPR 96
TRUNC TRUNCL 97
XOR 98